Documentation
…
##    <fct>              <int>              <dbl>                       <dbl> <int>
##  1 not_declared      607260              25.8                         25.8     1
##  2 level2            200189               8.51                        34.3     2
##  3 level5            194370               8.26                        42.6     3
##  4 level9            188763               8.02                        50.6     4
##  5 level10           185562               7.89                        58.5     5
##  6 level8            183209               7.79                        66.3     6
##  7 level7            178783               7.6                         73.9     7
##  8 level4            177743               7.55                        81.4     8
##  9 level3            173467               7.37                        88.8     9
## 10 level6            168129               7.15                        95.9    10
## 11 level1             95537               4.06                       100      11
## 
## [[10]]
## # A tibble: 2,651 x 5
##    living_area frequency relative_frequency relative_cumulative_frequency    nr
##    <fct>           <int>              <dbl>                         <dbl> <int>
##  1 <NA>           469015             19.9                            19.9     1
##  2 2160            22428              0.95                           20.9     2
##  3 1084            21991              0.93                           21.8     3
##  4 2473            20147              0.86                           22.7     4
##  5 2208            17806              0.76                           23.4     5
##  6 290             14712              0.63                           24.1     6
##  7 2163            13757              0.580                          24.6     7
##  8 499             13264              0.56                           25.2     8
##  9 2210            13070              0.56                           25.8     9
## 10 1786            11734              0.5                            26.3    10
## # ... with 2,641 more rows
## 
## [[11]]
…
